-2.775681521712181521e+00,2.857151747568481781e+00
3.400126556615129303e+00,-3.831015071057624066e+00
-3.752193977151337401e-01,1.058698278085610456e+00
-9.205720209107660645e-01,5.577703860265970981e+00
-6.456671782309958418e-01,-4.578552590355081442e+00
-4.829318963902702322e+00,8.823585021930887562e-01
2.219631387250723620e+00,-3.806359096286919375e+00
2.201011955898839467e+00,3.829794638554861130e+00
-2.707926224418760963e+00,-4.522121285015719971e-01
-2.511279724675151481e+00,1.870990029012205680e+00
-6.180127328549124277e-01,2.417402909689179591e+00
-5.247611903521337773e+00,-3.356010293612283757e+00
2.187817060689297488e+00,-2.567137003153912911e+00
-1.516363111938165531e+00,1.506306452132475826e+00
-4.917219230184765699e+00,-2.781096064900898668e+00
-5.494821852685419783e-01,3.691526816234358854e+00
-4.843608133708671382e+00,9.404651787718771860e-01
-2.652087813099885949e+00,-2.956471429414604835e+00
2.178404202754774754e+00,-7.101053798556244967e-01
-1.041554958049770940e+00,1.351872641219618698e+00
-1.131852301510916314e+00,-8.894083762028365259e-02
-6.359031947140903362e+00,-5.565451407556146757e-01
-2.081713018288761763e+00,1.334837360478983159e+00
3.988922365588079888e+00,5.027246127660071728e+00
-8.676890818374840553e-01,-1.778922687738941244e+00
-4.750023242277349178e-01,5.828803968428092119e+00
2.874446891608069876e+00,-2.588480696500025324e+00
4.820352163797711142e+00,-8.465258623351017420e-01
1.696956040729487469e+00,-4.224907382984096849e+00
3.001483831564093485e+00,-5.035644651494871837e+00
3.295562127013558218e+00,5.318092830464081544e+00
2.311802020266350954e+00,4.448033958297829216e+00
-1.192242483788686691e+00,-3.285885920338299293e+00
1.717221591882940102e+00,-1.628752333366786820e+00
2.338942002047894597e+00,4.895118405701929021e+00
-3.168873817356606448e+00,1.247922021392782410e+00
3.475747541990958922e+00,3.538564128282681853e+00
-1.540904666782859422e+00,-1.054848686169110872e+00
2.279593420792725311e+00,-5.772498425653193266e+00
4.419325397614866979e+00,1.260738637630334447e+00
2.534084575503979808e-01,6.925805506011694090e-01
-5.155601063819901242e+00,-1.760558798336460562e+00
-3.792455176304656117e+00,-3.483289455109256583e+00
-7.725432774433631522e-01,-1.701750090262419635e+00
-3.596601032170354539e+00,3.877417220543180609e-01
1.555893791617281030e-01,-5.049560250485174429e+00
6.801628002927055938e-01,-5.627153060093023740e+00
-1.110908239078250981e+00,-2.686773001589611631e+00
2.457500808225062006e+00,-4.950134306744081059e+00
-4.593203338918366185e+00,-2.358472419425202915e+00
-1.503298985244675978e-01,5.820969595849638800e+00
4.574030641985914691e+00,5.511283619652701304e+00
1.784543405323666398e+00,-4.738234931594012544e-01
4.755086040602971131e+00,-9.068927815913760959e-01
8.703333349011924680e-01,3.878211130462831502e+00
4.057801183329556416e+00,2.429822135215140566e+00
1.171814565735119107e+00,-5.068034906178947807e+00
1.374507384562731582e+00,3.899930764339644362e+00
1.465839006397483102e+00,-3.022553686847774035e+00
-5.391355067396816914e-01,6.065710949316884815e+00
-4.075995720452727511e+00,-9.895624601421878497e-01
3.207681168836565289e-01,-2.569094774082667065e+00
4.751675630595046051e+00,4.304582300892560442e-01
1.515626983474834377e+00,3.200306616641946267e+00
1.863337416999326646e+00,4.328663863214700314e+00
-4.871890822497150886e+00,-1.915656389609852406e+00
-4.541940983253270225e+00,-2.380642044798092771e-01
-8.911416315121157838e-01,3.190337671654179363e+00
3.567263566233846994e+00,4.105485109391544540e+00
3.631709818080464114e+00,-3.081327785406549502e+00
3.482837542125944541e+00,4.493805469815863596e+00
4.510453227634855011e+00,-8.401493045363804812e-01
7.961143257270102414e-01,-2.379990758125785089e+00
-2.015229773320702300e+00,3.424033399625387442e-01
-2.980676267439064553e+00,1.384331743217291688e+00
-2.793834904096573535e+00,-1.165205200343843117e+00
-5.388022594995034886e+00,-2.576457542039971127e+00
3.484327943399193384e+00,2.349770034431093002e+00
3.420330030517933384e+00,-3.026579775692806784e+00
-1.721111458440849784e+00,-3.962925590120714769e+00
-4.278869907620764579e+00,-2.886693097686257925e+00
-7.742514858762130636e-01,-4.100743019825539015e+00
1.845763727442392366e+00,-5.812754824942308218e+00
-5.647553344270827225e+00,-3.383283759538916691e+00
3.834924887184634645e+00,5.680563183189349274e+00
4.413540011282566233e+00,4.591248332243366370e+00
-5.933875089750011433e-01,6.648333009597706678e+00
7.574264238459695875e-01,-5.721919537764566854e+00
-2.390198946098558430e+00,-3.207573270313003988e+00
2.936638374406948415e+00,-1.941188920230062509e+00
4.233796790753154404e+00,-2.683856487037690641e+00
3.881025680409506684e-01,5.632607487158045600e+00
-3.840878244288742138e+00,-1.533385050914988668e+00
-1.837168268871072430e+00,8.764285143199154193e-01
-1.143444034698760881e+00,2.683511109944388906e+00
-2.922004225389808862e+00,-1.442043121315980780e+00
-2.658575214206599369e-01,2.295109216705518040e+00
4.236381163736747446e+00,4.170761959479554193e+00
-4.094459423843169077e+00,-3.213855579811033980e+00
3.748627226946306124e+00,3.688214535265401217e+00
